<?xml version="1.0" encoding="UTF-8" standalone="no"?>
<!-- Created with Inkscape (http://www.inkscape.org/) -->
<svg id="svg8405" xmlns:rdf="http://www.w3.org/1999/02/22-rdf-syntax-ns#" xmlns="http://www.w3.org/2000/svg" height="12.248mm" width="12.248mm" version="1.1" xmlns:cc="http://creativecommons.org/ns#" xmlns:dc="http://purl.org/dc/elements/1.1/" viewBox="0 0 43.4 43.4">
 <metadata id="metadata8410">
  <rdf:RDF>
   <cc:Work rdf:about="">
    <dc:format>image/svg+xml</dc:format>
    <dc:type rdf:resource="http://purl.org/dc/dcmitype/StillImage"/>
    <dc:title/>
   </cc:Work>
  </rdf:RDF>
 </metadata>
 <g id="layer1" transform="translate(15.986 -150.66)">
  <g id="g8366" display="block" transform="translate(-122.36 -300.71)">
   <path id="path176" d="m108.77 451.37h38.5c1.4 0 2.5 1.1 2.5 2.5v38.5c0 1.3-1.1 2.4-2.5 2.4h-38.5c-1.3 0-2.4-1.1-2.4-2.4v-38.5c0-1.4 1.1-2.5 2.4-2.5z" fill-rule="evenodd" class="g18_1" fill="#e6e7e8"/>
   <path id="path178" d="m110.37 490.77h35.4v-35.4h-35.4v35.4z" class="g25_1" fill="#f8a89d"/>
   <g fill-rule="evenodd">
    <path id="path180" d="m119.87 455.37h25.9v22.9l-25.9-22.9z" class="g26_1" fill="#469ec7"/>
    <path id="path182" d="m110.37 455.37h35.4v10l-35.4 3.7v-13.7z" class="g27_1" fill="#3e589c"/>
    <path id="path184" d="m145.77 482.77v8h-35.4v-14.7l35.4 6.7z" class="g28_1" fill="#f15d5a"/>
    <path id="path186" d="m132.67 466.77-12.8-11.4h25.9v10l-13.1 1.4z" class="g29_1" fill="#4c4768"/>
    <path id="path188" d="m130.57 478.57 12.7 12.2h-10.5l-13.6-13.2c-0.7-0.6-0.7-1.7-0.1-2.3l2.8-2.9c0.6-0.6 1.7-0.6 2.3 0l6.4 6.2z" class="g29_1" fill="#4c4768"/>
    <path id="path190" d="m130.57 476.17 15.2 14.6h-10.5l-9.7-9.4 5-5.2z" class="g7_1" fill="#231f20"/>
   </g>
   <g fill-rule="evenodd" fill="#fff">
    <path id="path192" d="m124.17 469.97 6.4 6.2-5 5.2-6.4-6.2c-0.7-0.6-0.7-1.7-0.1-2.3l2.8-2.9c0.6-0.7 1.7-0.7 2.3 0z" class="g3_1"/>
    <path id="path194" d="m128.47 463.87c0.5 0 0.9 0.4 0.9 0.9s-0.4 0.9-0.9 0.9-0.9-0.4-0.9-0.9 0.4-0.9 0.9-0.9z" class="g3_1"/>
    <path id="path196" d="m134.27 467.87c0.9 0 1.5 0.6 1.5 1.5 0 0.8-0.6 1.4-1.5 1.4-0.8 0-1.4-0.6-1.4-1.4 0-0.9 0.6-1.5 1.4-1.5z" class="g3_1"/>
    <path id="path198" d="m138.27 468.07c0.5 0 0.9 0.3 0.9 0.8 0 0.4-0.4 0.8-0.9 0.8-0.4 0-0.8-0.4-0.8-0.8 0-0.5 0.4-0.8 0.8-0.8z" class="g3_1"/>
    <path id="path200" d="m143.17 473.67c0.5 0 0.9 0.5 0.9 1s-0.4 0.9-0.9 0.9c-0.6 0-1-0.4-1-0.9s0.4-1 1-1z" class="g3_1"/>
    <path id="path202" d="m135.67 459.67c1.5 0 2.7 1.2 2.7 2.7s-1.2 2.7-2.7 2.7-2.7-1.2-2.7-2.7 1.2-2.7 2.7-2.7z" class="g3_1"/>
   </g>
  </g>
 </g>
</svg>
